\relax 
\providecommand\hyper@newdestlabel[2]{}
\providecommand\HyperFirstAtBeginDocument{\AtBeginDocument}
\HyperFirstAtBeginDocument{\ifx\hyper@anchor\@undefined
\global\let\oldcontentsline\contentsline
\gdef\contentsline#1#2#3#4{\oldcontentsline{#1}{#2}{#3}}
\global\let\oldnewlabel\newlabel
\gdef\newlabel#1#2{\newlabelxx{#1}#2}
\gdef\newlabelxx#1#2#3#4#5#6{\oldnewlabel{#1}{{#2}{#3}}}
\AtEndDocument{\ifx\hyper@anchor\@undefined
\let\contentsline\oldcontentsline
\let\newlabel\oldnewlabel
\fi}
\fi}
\global\let\hyper@last\relax 
\gdef\HyperFirstAtBeginDocument#1{#1}
\providecommand\HyField@AuxAddToFields[1]{}
\providecommand\HyField@AuxAddToCoFields[2]{}
\citation{SBWI}
\@LN@col{1}
\@writefile{toc}{\contentsline {section}{\numberline {1}Introduction}{1}{section.1}}
\@writefile{toc}{\contentsline {section}{\numberline {2}Baseline Architecture}{1}{section.2}}
\@LN@col{2}
\@writefile{lof}{\contentsline {figure}{\numberline {1}{\ignorespaces Baseline Architecture.\relax }}{1}{figure.caption.2}}
\providecommand*\caption@xref[2]{\@setref\relax\@undefined{#1}}
\newlabel{fig1}{{1}{1}{Baseline Architecture.\relax }{figure.caption.2}{}}
\@writefile{toc}{\contentsline {section}{\numberline {3}Scheduler}{1}{section.3}}
\@LN@col{1}
\@writefile{toc}{\contentsline {section}{\numberline {4}CUDA Runtime API}{2}{section.4}}
\@writefile{lof}{\contentsline {figure}{\numberline {2}{\ignorespaces CUDA Runtime API\relax }}{2}{figure.caption.3}}
\newlabel{fig2}{{2}{2}{CUDA Runtime API\relax }{figure.caption.3}{}}
\@writefile{toc}{\contentsline {section}{\numberline {5}Branch Interweaving}{2}{section.5}}
\@writefile{lof}{\contentsline {figure}{\numberline {3}{\ignorespaces MT IU\relax }}{2}{figure.caption.4}}
\newlabel{fig3}{{3}{2}{MT IU\relax }{figure.caption.4}{}}
\@LN@col{2}
\@writefile{toc}{\contentsline {section}{\numberline {6}Instruction Flow Demonstration}{2}{section.6}}
\@writefile{lof}{\contentsline {figure}{\numberline {4}{\ignorespaces instruction flow for branches\relax }}{2}{figure.caption.5}}
\newlabel{fig4}{{4}{2}{instruction flow for branches\relax }{figure.caption.5}{}}
\@writefile{toc}{\contentsline {section}{\numberline {7}Benchmark Result}{2}{section.7}}
\citation{SBWI}
\bibstyle{acmsiggraph}
\bibdata{template}
\bibcite{SBWI}{\citename {Nicolas Brunie}2011}
\bibcite{Barra}{\citename {Sylvain Collange}2009}
\bibcite{AnaCUDA}{\citename {Bakhoda A}2009}
\@LN@col{1}
\@writefile{lof}{\contentsline {figure}{\numberline {5}{\ignorespaces test case 1\relax }}{3}{figure.caption.6}}
\newlabel{fig5}{{5}{3}{test case 1\relax }{figure.caption.6}{}}
\@writefile{toc}{\contentsline {section}{\numberline {8}Conclusion And Observation}{3}{section.8}}
\@writefile{toc}{\contentsline {section}{\numberline {9}What We Have Learned}{3}{section.9}}
\@LN@col{2}
\@writefile{lof}{\contentsline {figure}{\numberline {6}{\ignorespaces test case 2\relax }}{3}{figure.caption.7}}
\newlabel{fig6}{{6}{3}{test case 2\relax }{figure.caption.7}{}}
\bibcite{Tesla}{\citename {Lindholm E}2008}
\bibcite{GPGPUSIM}{\citename {Tor Aamodt}2011}
\bibcite{Development zone}{\citename {nvidia}2010}
\@LN@col{1}
\@writefile{lof}{\contentsline {figure}{\numberline {7}{\ignorespaces test case 3\relax }}{4}{figure.caption.8}}
\newlabel{fig7}{{7}{4}{test case 3\relax }{figure.caption.8}{}}
\@LN@col{2}
